Introduction to the `cpass` package • cpass
…
The second cycle of this subject fulfilled the criteria for a
cycle-level PMDD diagnosis. The symptoms reported in the other cycles
did not meet the criteria for PMDD nor for MRMD.

We can dive even deeper and look at the DRSP items during this cycle
#2:

diagnosis$item_level_diagnosis %>% filter(subject == 47, cycle == 2)
#> # A tibble: 24 × 16
#>    subject cycle  item at_least_n_obs max_sev_pre n_days_high_score mean_pre
#>      <dbl> <dbl> <dbl> <lgl>                <int>             <int>    <dbl>
#>  1      47     2     1 TRUE                     1                 0     1   
#>  2      47     2     2 TRUE                     3                 0     1.43
#>  3      47     2     3 TRUE                     1                 0     1   
#>  4      47     2     4 TRUE                     5                 4     3.43
#>  5      47     2     5 TRUE                     6                 5     3.86
#>  6      47     2     6 TRUE                     1                 0     1   
#>  7      47     2     7 TRUE                     6                 5     4.43
#>  8      47     2     8 TRUE                     5                 5     3.83
#>  9      47     2     9 TRUE                     4                 1     1.86
#> 10      47     2    10 TRUE                     4                 2     2.71
#> # ℹ 14 more rows
#> # ℹ 9 more variables: mean_post <dbl>, raw_cyclical_change <dbl>, range <dbl>,
#> #   percent_change <dbl>, max_sev_post <int>, item_meets_PMDD_criteria <lgl>,
#> #   item_meets_PME_criteria <lgl>, DSM5_SYMPTOM_DOMAIN <chr>,
#> #   SYMPTOM_CATEGORY <chr>
…
